%!PS-Adobe-2.0 EPSF-1.2
%%Creator: MATLAB, The MathWorks, Inc. Version 8.3.0.532 (R2014a). Operating System: Darwin 15.3.0 Darwin Kernel Version 15.3.0: Thu Dec 10 18:40:58 PST 2015; root:xnu-3248.30.4~1/RELEASE_X86_64 x86_64.
%%Title: Figures/figure1.matlab.eps
%%CreationDate: 04/07/2016  14:20:32
%%DocumentNeededFonts: Helvetica
%%DocumentProcessColors: Cyan Magenta Yellow Black
%%Extensions: CMYK
%%Pages: 1
%%BoundingBox:     0     0   161   216
%%EndComments

%%BeginProlog
% MathWorks dictionary
/MathWorks 160 dict begin
% definition operators
/bdef {bind def} bind def
/ldef {load def} bind def
/xdef {exch def} bdef
/xstore {exch store} bdef
% operator abbreviations
/c  /clip ldef
/cc /concat ldef
/cp /closepath ldef
/gr /grestore ldef
/gs /gsave ldef
/mt /moveto ldef
/np /newpath ldef
/cm /currentmatrix ldef
/sm /setmatrix ldef
/rm /rmoveto ldef
/rl /rlineto ldef
/s {show newpath} bdef
/sc {setcmykcolor} bdef
/sr /setrgbcolor ldef
/sg /setgray ldef
/w /setlinewidth ldef
/j /setlinejoin ldef
/cap /setlinecap ldef
/rc {rectclip} bdef
/rf {rectfill} bdef
% page state control
/pgsv () def
/bpage {/pgsv save def} bdef
/epage {pgsv restore} bdef
/bplot /gsave ldef
/eplot {stroke grestore} bdef
% orientation switch
/portraitMode 0 def /landscapeMode 1 def /rotateMode 2 def
% coordinate system mappings
/dpi2point 0 def
% font control
/FontSize 0 def
/FMS {/FontSize xstore findfont [FontSize 0 0 FontSize neg 0 0]
  makefont setfont} bdef
/reencode {exch dup where {pop load} {pop StandardEncoding} ifelse
  exch dup 3 1 roll findfont dup length dict begin
  { 1 index /FID ne {def}{pop pop} ifelse } forall
  /Encoding exch def currentdict end definefont pop} bdef
/isroman {findfont /CharStrings get /Agrave known} bdef
/FMSR {3 1 roll 1 index dup isroman {reencode} {pop pop} ifelse
  exch FMS} bdef
/csm {1 dpi2point div -1 dpi2point div scale neg translate
 dup landscapeMode eq {pop -90 rotate}
  {rotateMode eq {90 rotate} if} ifelse} bdef
% line types: solid, dotted, dashed, dotdash
/SO { [] 0 setdash } bdef
/DO { [.5 dpi2point mul 4 dpi2point mul] 0 setdash } bdef
/DA { [6 dpi2point mul] 0 setdash } bdef
/DD { [.5 dpi2point mul 4 dpi2point mul 6 dpi2point mul 4
  dpi2point mul] 0 setdash } bdef
% macros for lines and objects
/L {lineto stroke} bdef
/MP {3 1 roll moveto 1 sub {rlineto} repeat} bdef
/AP {{rlineto} repeat} bdef
/PDlw -1 def
/W {/PDlw currentlinewidth def setlinewidth} def
/PP {closepath eofill} bdef
/DP {closepath stroke} bdef
/MR {4 -2 roll moveto dup  0 exch rlineto exch 0 rlineto
  neg 0 exch rlineto closepath} bdef
/FR {MR stroke} bdef
/PR {MR fill} bdef
/L1i {{currentfile picstr readhexstring pop} image} bdef
/tMatrix matrix def
/MakeOval {newpath tMatrix currentmatrix pop translate scale
0 0 1 0 360 arc tMatrix setmatrix} bdef
/FO {MakeOval stroke} bdef
/PO {MakeOval fill} bdef
/PD {currentlinewidth 2 div 0 360 arc fill
   PDlw -1 eq not {PDlw w /PDlw -1 def} if} def
/FA {newpath tMatrix currentmatrix pop translate scale
  0 0 1 5 -2 roll arc tMatrix setmatrix stroke} bdef
/PA {newpath tMatrix currentmatrix pop	translate 0 0 moveto scale
  0 0 1 5 -2 roll arc closepath tMatrix setmatrix fill} bdef
/FAn {newpath tMatrix currentmatrix pop translate scale
  0 0 1 5 -2 roll arcn tMatrix setmatrix stroke} bdef
/PAn {newpath tMatrix currentmatrix pop translate 0 0 moveto scale
  0 0 1 5 -2 roll arcn closepath tMatrix setmatrix fill} bdef
/vradius 0 def /hradius 0 def /lry 0 def
/lrx 0 def /uly 0 def /ulx 0 def /rad 0 def
/MRR {/vradius xdef /hradius xdef /lry xdef /lrx xdef /uly xdef
  /ulx xdef newpath tMatrix currentmatrix pop ulx hradius add uly
  vradius add translate hradius vradius scale 0 0 1 180 270 arc 
  tMatrix setmatrix lrx hradius sub uly vradius add translate
  hradius vradius scale 0 0 1 270 360 arc tMatrix setmatrix
  lrx hradius sub lry vradius sub translate hradius vradius scale
  0 0 1 0 90 arc tMatrix setmatrix ulx hradius add lry vradius sub
  translate hradius vradius scale 0 0 1 90 180 arc tMatrix setmatrix
  closepath} bdef
/FRR {MRR stroke } bdef
/PRR {MRR fill } bdef
/MlrRR {/lry xdef /lrx xdef /uly xdef /ulx xdef /rad lry uly sub 2 div def
  newpath tMatrix currentmatrix pop ulx rad add uly rad add translate
  rad rad scale 0 0 1 90 270 arc tMatrix setmatrix lrx rad sub lry rad
  sub translate rad rad scale 0 0 1 270 90 arc tMatrix setmatrix
  closepath} bdef
/FlrRR {MlrRR stroke } bdef
/PlrRR {MlrRR fill } bdef
/MtbRR {/lry xdef /lrx xdef /uly xdef /ulx xdef /rad lrx ulx sub 2 div def
  newpath tMatrix currentmatrix pop ulx rad add uly rad add translate
  rad rad scale 0 0 1 180 360 arc tMatrix setmatrix lrx rad sub lry rad
  sub translate rad rad scale 0 0 1 0 180 arc tMatrix setmatrix
  closepath} bdef
/FtbRR {MtbRR stroke } bdef
/PtbRR {MtbRR fill } bdef
/stri 6 array def /dtri 6 array def
/smat 6 array def /dmat 6 array def
/tmat1 6 array def /tmat2 6 array def /dif 3 array def
/asub {/ind2 exch def /ind1 exch def dup dup
  ind1 get exch ind2 get sub exch } bdef
/tri_to_matrix {
  2 0 asub 3 1 asub 4 0 asub 5 1 asub
  dup 0 get exch 1 get 7 -1 roll astore } bdef
/compute_transform {
  dmat dtri tri_to_matrix tmat1 invertmatrix 
  smat stri tri_to_matrix tmat2 concatmatrix } bdef
/ds {stri astore pop} bdef
/dt {dtri astore pop} bdef
/db {2 copy /cols xdef /rows xdef mul dup 3 mul string
  currentfile exch readhexstring pop
  dup 0 3 index getinterval /rbmap xdef
  dup 2 index dup getinterval /gbmap xdef
  1 index dup 2 mul exch getinterval /bbmap xdef pop pop}bdef
/it {gs np dtri aload pop moveto lineto lineto cp c
  cols rows 8 compute_transform 
  rbmap gbmap bbmap true 3 colorimage gr}bdef
/il {newpath moveto lineto stroke}bdef
currentdict end def
%%EndProlog

%%BeginSetup
MathWorks begin

0 cap

end
%%EndSetup

%%Page: 1 1
%%BeginPageSetup
%%PageBoundingBox:     0     0   161   216
MathWorks begin
bpage
%%EndPageSetup

%%BeginObject: obj1
bplot

/dpi2point 12 def
portraitMode 0000 2544 csm

    0   -48  1935  2602 MR c np
85 dict begin %Colortable dictionary
/c0 { 0.000000 0.000000 0.000000 sr} bdef
/c1 { 1.000000 1.000000 1.000000 sr} bdef
/c2 { 0.900000 0.000000 0.000000 sr} bdef
/c3 { 0.000000 0.820000 0.000000 sr} bdef
/c4 { 0.000000 0.000000 0.800000 sr} bdef
/c5 { 0.910000 0.820000 0.320000 sr} bdef
/c6 { 1.000000 0.260000 0.820000 sr} bdef
/c7 { 0.000000 0.820000 0.820000 sr} bdef
c0
1 j
1 sg
   0    0 1888 2555 PR
6 w
0 2045 1284 0 0 -2045 424 2237 4 MP
PP
-1284 0 0 2045 1284 0 0 -2045 424 2237 5 MP stroke
4 w
DO
SO
6 w
0 sg
 424 2237 mt 1708 2237 L
 424  192 mt 1708  192 L
 424 2237 mt  424  192 L
1708 2237 mt 1708  192 L
 424 2237 mt 1708 2237 L
 424 2237 mt  424  192 L
 424 2237 mt  424 2216 L
 424  192 mt  424  212 L
%%IncludeResource: font Helvetica
/Helvetica /ISOLatin1Encoding 120 FMSR

 328 2382 mt 
(x07) s
 680 2237 mt  680 2216 L
 680  192 mt  680  212 L
 584 2382 mt 
(x08) s
 937 2237 mt  937 2216 L
 937  192 mt  937  212 L
 841 2382 mt 
(x09) s
1194 2237 mt 1194 2216 L
1194  192 mt 1194  212 L
1098 2382 mt 
(x10) s
1451 2237 mt 1451 2216 L
1451  192 mt 1451  212 L
1355 2382 mt 
(x11) s
1708 2237 mt 1708 2216 L
1708  192 mt 1708  212 L
1612 2382 mt 
(x12) s
 424 2237 mt  444 2237 L
1708 2237 mt 1687 2237 L
 196 2281 mt 
(v12) s
 424 2032 mt  444 2032 L
1708 2032 mt 1687 2032 L
 196 2076 mt 
(v13) s
 424 1828 mt  444 1828 L
1708 1828 mt 1687 1828 L
 196 1872 mt 
(v14) s
 424 1623 mt  444 1623 L
1708 1623 mt 1687 1623 L
 196 1667 mt 
(v15) s
 424 1419 mt  444 1419 L
1708 1419 mt 1687 1419 L
 196 1463 mt 
(v16) s
 424 1214 mt  444 1214 L
1708 1214 mt 1687 1214 L
 196 1258 mt 
(v17) s
 424 1010 mt  444 1010 L
1708 1010 mt 1687 1010 L
 196 1054 mt 
(v18) s
 424  805 mt  444  805 L
1708  805 mt 1687  805 L
 196  849 mt 
(v19) s
 424  601 mt  444  601 L
1708  601 mt 1687  601 L
 196  645 mt 
(v20) s
 424  396 mt  444  396 L
1708  396 mt 1687  396 L
 196  440 mt 
(v21) s
 424  192 mt  444  192 L
1708  192 mt 1687  192 L
 196  236 mt 
(v22) s
 424 2237 mt 1708 2237 L
 424  192 mt 1708  192 L
 424 2237 mt  424  192 L
1708 2237 mt 1708  192 L
gs 424 192 1285 2046 MR c np
/c8 { 0.000000 0.000000 1.000000 sr} bdef
c8
2 -5 4 -12 5 -11 5 -12 5 -12 6 -12 6 -11 6 -12 
5 -12 5 -12 4 -11 4 -12 4 -12 4 -12 5 -12 4 -11 
4 -12 4 -12 5 -12 4 -11 4 -12 5 -12 4 -12 4 -12 
5 -11 5 -12 4 -12 5 -12 4 -11 5 -12 4 -12 5 -12 
5 -11 5 -12 4 -12 5 -12 5 -12 5 -11 5 -12 5 -12 
5 -12 5 -11 5 -12 5 -12 5 -12 6 -12 5 -11 6 -12 
5 -12 6 -12 5 -11 6 -12 5 -12 6 -12 6 -11 6 -12 
5 -12 7 -12 6 -12 6 -11 6 -12 6 -12 7 -12 7 -11 
6 -12 7 -12 6 -12 7 -11 7 -12 7 -12 7 -12 6 -12 
7 -11 7 -12 8 -12 7 -12 7 -11 7 -12 7 -12 8 -12 
8 -12 6 -11 7 -12 8 -12 8 -12 7 -11 8 -12 7 -12 
8 -12 8 -11 8 -12 7 -12 8 -12 8 -12 8 -11 8 -12 
8 -12 8 -12 9 -11 1108 1350 100 MP stroke
8 -12 9 -12 8 -12 8 -12 9 -11 9 -12 8 -12 9 -12 
8 -11 9 -12 8 -12 9 -12 9 -11 8 -12 9 -12 10 -12 
8 -12 9 -11 9 -12 9 -12 9 -12 10 -11 9 -12 9 -12 
9 -12 10 -11 9 -12 9 -12 9 -12 9 -12 10 -11 9 -12 
9 -12 10 -12 9 -11 10 -12 10 -12 9 -12 10 -12 9 -11 
11 -12 10 -12 10 -12 10 -11 10 -12 10 -12 10 -12 10 -11 
11 -12 10 -12 10 -12 10 -12 11 -11 11 -12 10 -12 11 -12 
10 -11 11 -12 10 -12 10 -12 10 -12 9 -11 10 -12 10 -12 
9 -12 9 -11 8 -12 9 -12 8 -12 7 -11 7 -12 5 -12 
4 -12 4 -12 3 -11 0 -5 430 2238 77 MP stroke
gr

c8
0 sg
 968 2525 mt 
(s01) s
 114 1312 mt  -90 rotate
(s02) s
90 rotate
1840 -2492 0 2554 2 MP stroke
-47 62 108 -69 1779 69 3 MP
PP
-61 7 -47 62 108 -69 1779 69 4 MP stroke
-11 -61 -36 123 1887 0 3 MP
PP
47 -62 -11 -61 -36 123 1887 0 4 MP stroke

end %%Color Dict

eplot
%%EndObject

epage
end

showpage

%%Trailer
%%EOF
