%!PS-Adobe-2.0 EPSF-1.2
%%Creator: MATLAB, The MathWorks, Inc. Version 8.3.0.532 (R2014a). Operating System: Darwin 15.3.0 Darwin Kernel Version 15.3.0: Thu Dec 10 18:40:58 PST 2015; root:xnu-3248.30.4~1/RELEASE_X86_64 x86_64.
%%Title: Figures/hstop_diagram_7.matlab.eps
%%CreationDate: 04/07/2016  14:09:15
%%DocumentNeededFonts: Helvetica
%%DocumentProcessColors: Cyan Magenta Yellow Black
%%Extensions: CMYK
%%Pages: 1
%%BoundingBox:     0     0   271   207
%%EndComments

%%BeginProlog
% MathWorks dictionary
/MathWorks 160 dict begin
% definition operators
/bdef {bind def} bind def
/ldef {load def} bind def
/xdef {exch def} bdef
/xstore {exch store} bdef
% operator abbreviations
/c  /clip ldef
/cc /concat ldef
/cp /closepath ldef
/gr /grestore ldef
/gs /gsave ldef
/mt /moveto ldef
/np /newpath ldef
/cm /currentmatrix ldef
/sm /setmatrix ldef
/rm /rmoveto ldef
/rl /rlineto ldef
/s {show newpath} bdef
/sc {setcmykcolor} bdef
/sr /setrgbcolor ldef
/sg /setgray ldef
/w /setlinewidth ldef
/j /setlinejoin ldef
/cap /setlinecap ldef
/rc {rectclip} bdef
/rf {rectfill} bdef
% page state control
/pgsv () def
/bpage {/pgsv save def} bdef
/epage {pgsv restore} bdef
/bplot /gsave ldef
/eplot {stroke grestore} bdef
% orientation switch
/portraitMode 0 def /landscapeMode 1 def /rotateMode 2 def
% coordinate system mappings
/dpi2point 0 def
% font control
/FontSize 0 def
/FMS {/FontSize xstore findfont [FontSize 0 0 FontSize neg 0 0]
  makefont setfont} bdef
/reencode {exch dup where {pop load} {pop StandardEncoding} ifelse
  exch dup 3 1 roll findfont dup length dict begin
  { 1 index /FID ne {def}{pop pop} ifelse } forall
  /Encoding exch def currentdict end definefont pop} bdef
/isroman {findfont /CharStrings get /Agrave known} bdef
/FMSR {3 1 roll 1 index dup isroman {reencode} {pop pop} ifelse
  exch FMS} bdef
/csm {1 dpi2point div -1 dpi2point div scale neg translate
 dup landscapeMode eq {pop -90 rotate}
  {rotateMode eq {90 rotate} if} ifelse} bdef
% line types: solid, dotted, dashed, dotdash
/SO { [] 0 setdash } bdef
/DO { [.5 dpi2point mul 4 dpi2point mul] 0 setdash } bdef
/DA { [6 dpi2point mul] 0 setdash } bdef
/DD { [.5 dpi2point mul 4 dpi2point mul 6 dpi2point mul 4
  dpi2point mul] 0 setdash } bdef
% macros for lines and objects
/L {lineto stroke} bdef
/MP {3 1 roll moveto 1 sub {rlineto} repeat} bdef
/AP {{rlineto} repeat} bdef
/PDlw -1 def
/W {/PDlw currentlinewidth def setlinewidth} def
/PP {closepath eofill} bdef
/DP {closepath stroke} bdef
/MR {4 -2 roll moveto dup  0 exch rlineto exch 0 rlineto
  neg 0 exch rlineto closepath} bdef
/FR {MR stroke} bdef
/PR {MR fill} bdef
/L1i {{currentfile picstr readhexstring pop} image} bdef
/tMatrix matrix def
/MakeOval {newpath tMatrix currentmatrix pop translate scale
0 0 1 0 360 arc tMatrix setmatrix} bdef
/FO {MakeOval stroke} bdef
/PO {MakeOval fill} bdef
/PD {currentlinewidth 2 div 0 360 arc fill
   PDlw -1 eq not {PDlw w /PDlw -1 def} if} def
/FA {newpath tMatrix currentmatrix pop translate scale
  0 0 1 5 -2 roll arc tMatrix setmatrix stroke} bdef
/PA {newpath tMatrix currentmatrix pop	translate 0 0 moveto scale
  0 0 1 5 -2 roll arc closepath tMatrix setmatrix fill} bdef
/FAn {newpath tMatrix currentmatrix pop translate scale
  0 0 1 5 -2 roll arcn tMatrix setmatrix stroke} bdef
/PAn {newpath tMatrix currentmatrix pop translate 0 0 moveto scale
  0 0 1 5 -2 roll arcn closepath tMatrix setmatrix fill} bdef
/vradius 0 def /hradius 0 def /lry 0 def
/lrx 0 def /uly 0 def /ulx 0 def /rad 0 def
/MRR {/vradius xdef /hradius xdef /lry xdef /lrx xdef /uly xdef
  /ulx xdef newpath tMatrix currentmatrix pop ulx hradius add uly
  vradius add translate hradius vradius scale 0 0 1 180 270 arc 
  tMatrix setmatrix lrx hradius sub uly vradius add translate
  hradius vradius scale 0 0 1 270 360 arc tMatrix setmatrix
  lrx hradius sub lry vradius sub translate hradius vradius scale
  0 0 1 0 90 arc tMatrix setmatrix ulx hradius add lry vradius sub
  translate hradius vradius scale 0 0 1 90 180 arc tMatrix setmatrix
  closepath} bdef
/FRR {MRR stroke } bdef
/PRR {MRR fill } bdef
/MlrRR {/lry xdef /lrx xdef /uly xdef /ulx xdef /rad lry uly sub 2 div def
  newpath tMatrix currentmatrix pop ulx rad add uly rad add translate
  rad rad scale 0 0 1 90 270 arc tMatrix setmatrix lrx rad sub lry rad
  sub translate rad rad scale 0 0 1 270 90 arc tMatrix setmatrix
  closepath} bdef
/FlrRR {MlrRR stroke } bdef
/PlrRR {MlrRR fill } bdef
/MtbRR {/lry xdef /lrx xdef /uly xdef /ulx xdef /rad lrx ulx sub 2 div def
  newpath tMatrix currentmatrix pop ulx rad add uly rad add translate
  rad rad scale 0 0 1 180 360 arc tMatrix setmatrix lrx rad sub lry rad
  sub translate rad rad scale 0 0 1 0 180 arc tMatrix setmatrix
  closepath} bdef
/FtbRR {MtbRR stroke } bdef
/PtbRR {MtbRR fill } bdef
/stri 6 array def /dtri 6 array def
/smat 6 array def /dmat 6 array def
/tmat1 6 array def /tmat2 6 array def /dif 3 array def
/asub {/ind2 exch def /ind1 exch def dup dup
  ind1 get exch ind2 get sub exch } bdef
/tri_to_matrix {
  2 0 asub 3 1 asub 4 0 asub 5 1 asub
  dup 0 get exch 1 get 7 -1 roll astore } bdef
/compute_transform {
  dmat dtri tri_to_matrix tmat1 invertmatrix 
  smat stri tri_to_matrix tmat2 concatmatrix } bdef
/ds {stri astore pop} bdef
/dt {dtri astore pop} bdef
/db {2 copy /cols xdef /rows xdef mul dup 3 mul string
  currentfile exch readhexstring pop
  dup 0 3 index getinterval /rbmap xdef
  dup 2 index dup getinterval /gbmap xdef
  1 index dup 2 mul exch getinterval /bbmap xdef pop pop}bdef
/it {gs np dtri aload pop moveto lineto lineto cp c
  cols rows 8 compute_transform 
  rbmap gbmap bbmap true 3 colorimage gr}bdef
/il {newpath moveto lineto stroke}bdef
currentdict end def
%%EndProlog

%%BeginSetup
MathWorks begin

0 cap

end
%%EndSetup

%%Page: 1 1
%%BeginPageSetup
%%PageBoundingBox:     0     0   271   207
MathWorks begin
bpage
%%EndPageSetup

%%BeginObject: obj1
bplot

/dpi2point 12 def
portraitMode 0000 2544 csm

    0    50  3252  2504 MR c np
89 dict begin %Colortable dictionary
/c0 { 0.000000 0.000000 0.000000 sr} bdef
/c1 { 1.000000 1.000000 1.000000 sr} bdef
/c2 { 0.900000 0.000000 0.000000 sr} bdef
/c3 { 0.000000 0.820000 0.000000 sr} bdef
/c4 { 0.000000 0.000000 0.800000 sr} bdef
/c5 { 0.910000 0.820000 0.320000 sr} bdef
/c6 { 1.000000 0.260000 0.820000 sr} bdef
/c7 { 0.000000 0.820000 0.820000 sr} bdef
c0
1 j
1 sg
   0    0 3406 2555 PR
6 w
0 2045 2639 0 0 -2045 443 2237 4 MP
PP
-2639 0 0 2045 2639 0 0 -2045 443 2237 5 MP stroke
4 w
DO
SO
6 w
0 sg
 443 2237 mt 3082 2237 L
 443 2237 mt  443  192 L
 443 2237 mt  443 2210 L
%%IncludeResource: font Helvetica
/Helvetica /ISOLatin1Encoding 120 FMSR

 347 2382 mt 
(x01) s
 882 2237 mt  882 2210 L
 786 2382 mt 
(x02) s
1322 2237 mt 1322 2210 L
1226 2382 mt 
(x03) s
1762 2237 mt 1762 2210 L
1666 2382 mt 
(x04) s
2202 2237 mt 2202 2210 L
2106 2382 mt 
(x05) s
2642 2237 mt 2642 2210 L
2546 2382 mt 
(x06) s
3082 2237 mt 3082 2210 L
2986 2382 mt 
(x07) s
 443 2237 mt  469 2237 L
 215 2281 mt 
(v01) s
 443 1865 mt  469 1865 L
 215 1909 mt 
(v02) s
 443 1493 mt  469 1493 L
 215 1537 mt 
(v03) s
 443 1121 mt  469 1121 L
 215 1165 mt 
(v04) s
 443  749 mt  469  749 L
 215  793 mt 
(v05) s
 443  377 mt  469  377 L
 215  421 mt 
(v06) s
gs 443 192 2640 2046 MR c np
/c8 { 0.803922 0.772549 0.749020 sr} bdef
c8
0 -2045 439 0 0 2045 2862 192 4 MP
PP
/c9 { 1.000000 0.980392 0.803922 sr} bdef
c9
-3 -34 -4 -35 -4 -34 -4 -35 -5 -35 -4 -34 -5 -35 -4 -35 
-5 -34 -5 -35 -6 -35 -5 -34 -6 -35 -6 -35 -6 -34 -6 -35 
-7 -35 -7 -34 -7 -35 -8 -35 -8 -34 -8 -35 -9 -35 -9 -34 
-10 -35 -10 -35 -11 -34 -12 -35 -12 -35 -13 -34 -13 -35 -15 -35 
-15 -34 -17 -35 -17 -35 -19 -34 -21 -35 -21 -35 -24 -34 -26 -35 
-28 -35 -30 -34 -34 -35 -37 -35 -41 -34 -46 -35 -51 -35 -58 -34 
-65 -35 -76 -35 -87 -34 -102 -35 -122 -35 -147 -34 -181 -35 -229 -35 
-296 -34 -401 -35 -570 -35 716 298 0 1747 2862 192 62 MP
PP
/c10 { 1.000000 0.960784 0.933333 sr} bdef
c10
-3 -34 -4 -35 -4 -34 -4 -35 -5 -35 -4 -34 -5 -35 -4 -35 
-5 -34 -5 -35 -6 -35 -5 -34 -6 -35 -6 -35 -6 -34 -6 -35 
-7 -35 -7 -34 -7 -35 -8 -35 -8 -34 -8 -35 -9 -35 -9 -34 
-10 -35 -10 -35 -11 -34 -12 -35 -12 -35 -13 -34 -13 -35 -15 -35 
-15 -34 -17 -35 -17 -35 -19 -34 -21 -35 -21 -35 -24 -34 -26 -35 
-28 -35 -30 -34 -34 -35 -37 -35 -41 -34 -46 -35 -51 -35 -58 -34 
-65 -35 -76 -35 -87 -34 -102 -35 -122 -35 -147 -34 -181 -35 -229 -35 
-296 -34 -401 -35 -570 -35 3355 0 0 2045 223 192 62 MP
PP
0 sg
-3 -34 -4 -35 -4 -34 -4 -35 -5 -35 -4 -34 -5 -35 -4 -35 
-5 -34 -5 -35 -6 -35 -5 -34 -6 -35 -6 -35 -6 -34 -6 -35 
-7 -35 -7 -34 -7 -35 -8 -35 -8 -34 -8 -35 -9 -35 -9 -34 
-10 -35 -10 -35 -11 -34 -12 -35 -12 -35 -13 -34 -13 -35 -15 -35 
-15 -34 -17 -35 -17 -35 -19 -34 -21 -35 -21 -35 -24 -34 -26 -35 
-28 -35 -30 -34 -34 -35 -37 -35 -41 -34 -46 -35 -51 -35 -58 -34 
-65 -35 -76 -35 -87 -34 -102 -35 -122 -35 -147 -34 -181 -35 -229 -35 
-296 -34 -401 -35 -75 -4 3083 2206 60 MP stroke
gr

  36   36 1322 1905 PO
  36   36 1102 1840 PO
  36   36 1102 1774 PO
  36   36 1102 1710 PO
  36   36  882 1642 PO
  36   36  882 1580 PO
  36   36  882 1517 PO
  36   36  882 1448 PO
  36   36  882 1386 PO
  36   36  772 1324 PO
  36   36  772 1245 PO
  36   36  772 1193 PO
  36   36  662 1124 PO
  36   36  662 1068 PO
  36   36  662  996 PO
  36   36  662  936 PO
  36   36  662  869 PO
  36   36  552  804 PO
  36   36  552  737 PO
  36   36 1872 2095 PO
  36   36 1762 2093 PO
  36   36 1982 2094 PO
  36   36  552  608 PO
  36   36  552  543 PO
  36   36  552  482 PO
  36   36  552  424 PO
  36   36  552  348 PO
  36   36  552  280 PO
  36   36 1652 2031 PO
  36   36 1432 1969 PO
  36   36 1322 1905 FO
  36   36 1102 1840 FO
  36   36 1102 1774 FO
  36   36 1102 1710 FO
  36   36  882 1642 FO
  36   36  882 1580 FO
  36   36  882 1517 FO
  36   36  882 1448 FO
  36   36  882 1386 FO
  36   36  772 1324 FO
  36   36  772 1245 FO
  36   36  772 1193 FO
  36   36  662 1124 FO
  36   36  662 1068 FO
  36   36  662  996 FO
  36   36  662  936 FO
  36   36  662  869 FO
  36   36  552  804 FO
  36   36  552  737 FO
  36   36 1872 2095 FO
  36   36 1762 2093 FO
  36   36 1982 2094 FO
  36   36  552  608 FO
  36   36  552  543 FO
  36   36  552  482 FO
  36   36  552  424 FO
  36   36  552  348 FO
  36   36  552  280 FO
  36   36 1652 2031 FO
  36   36 1432 1969 FO
gs 443 192 2640 2046 MR c np
gr

  36   36 1432 1898 FO
  36   36 1212 1838 FO
  36   36 1322 1835 FO
  36   36  992 1640 FO
  36   36 1102 1641 FO
  36   36  882 1318 FO
  36   36  772 1125 FO
  36   36  662  802 FO
  36   36 2092 2088 FO
  36   36 1762 2026 FO
  36   36 1652 1960 FO
  36   36 1542 1967 FO
gs 443 192 2640 2046 MR c np
gr

3046 1800 mt 3118 1800 L
3082 1764 mt 3082 1836 L
3046 1413 mt 3118 1413 L
3082 1377 mt 3082 1449 L
3046 1032 mt 3118 1032 L
3082  996 mt 3082 1068 L
3057 1775 mt 3107 1825 L
3107 1775 mt 3057 1825 L
3057 1388 mt 3107 1438 L
3107 1388 mt 3057 1438 L
3057 1007 mt 3107 1057 L
3107 1007 mt 3057 1057 L
gs 443 192 2640 2046 MR c np
gr

  36   36 1542 1896 FO
  36   36 1762 1891 FO
  36   36 1982 1884 FO
  36   36 2202 1877 FO
  36   36 2422 1872 FO
  36   36 2642 1857 FO
  36   36 1102 1575 FO
  36   36 1322 1568 FO
  36   36 1542 1562 FO
  36   36 1762 1554 FO
  36   36 1982 1546 FO
  36   36 2202 1533 FO
  36   36 2422 1522 FO
  36   36 2642 1507 FO
  36   36  882 1257 FO
  36   36 1102 1240 FO
  36   36 1322 1229 FO
  36   36 1542 1219 FO
  36   36 1762 1212 FO
  36   36 1982 1200 FO
  36   36 2202 1187 FO
  36   36 2422 1168 FO
  36   36 2642 1151 FO
  36   36  882  919 FO
  36   36 1322  897 FO
  36   36 1762  875 FO
  36   36 2202  840 FO
  36   36 2642  791 FO
gs 443 192 2640 2046 MR c np
gr

1664 2525 mt 
(s01) s
 133 1312 mt  -90 rotate
(s02) s
90 rotate
 618  438 mt 
(s05) s
 346 2280 mt 
(s11) s
2986  234 mt 
(s12) s
1 sg
0 480 1346 0 0 -480 1677 732 4 MP
PP
-1346 0 0 480 1346 0 0 -480 1677 732 5 MP stroke
4 w
DO
SO
6 w
0 sg
1677  732 mt 3023  732 L
1677  252 mt 3023  252 L
1677  732 mt 1677  252 L
3023  732 mt 3023  252 L
1677  732 mt 3023  732 L
1677  732 mt 1677  252 L
1677  732 mt 3023  732 L
1677  252 mt 3023  252 L
1677  732 mt 1677  252 L
3023  732 mt 3023  252 L
2119  386 mt 
(s07) s
gs 1677 252 1347 481 MR c np
c8
0 109 340 0 0 -109 1744 398 4 MP
PP
gr

c8
0 sg
2119  535 mt 
(s08) s
gs 1677 252 1347 481 MR c np
c9
0 109 340 0 0 -109 1744 546 4 MP
PP
gr

c9
0 sg
2119  683 mt 
(s09) s
gs 1677 252 1347 481 MR c np
c10
0 109 340 0 0 -109 1744 694 4 MP
PP
gr

c10

end %%Color Dict

eplot
%%EndObject

epage
end

showpage

%%Trailer
%%EOF
